## Autogenerated by Scribe. DO NOT MODIFY.

name: Productos
description: ''
endpoints:
  -
    httpMethods:
      - GET
    uri: api/products
    metadata:
      title: 'Productos paginados'
      description: ''
      authenticated: true
      custom: []
    headers:
      Authorization: 'Bearer {YOUR_AUTH_KEY}'
      Content-Type: application/json
      Accept: application/json
    urlParameters: []
    queryParameters:
      page:
        name: page
        description: ''
        required: false
        example: 13
        type: integer
        custom: []
    bodyParameters: []
    responses:
      -
        status: 200
        content: |-
          {
               "data": [
                   {
                       "id": 1,
                       "name": "Pigeon went on, 'I must.",
                       "description": "Nihil fugit animi ut voluptatem quidem ea. Nihil ratione assumenda ab voluptates aspernatur. Sit aut consequatur aut libero. Aut rerum voluptatem nihil consequuntur eaque laboriosam. Dolor commodi voluptas nam quia id. Nulla provident id vel voluptatem occaecati esse. Eum numquam qui aspernatur libero sed voluptatem velit.",
                       "available": 1,
                       "price": 46.08,
                       "created_at": "2021-08-19T15:21:27.000000Z"
                   },
                   {
                       "id": 2,
                       "name": "Gryphon. 'Of course,'.",
                       "description": "Perferendis esse nemo quidem sequi quas omnis repellat. Eveniet ut doloribus ipsa quibusdam illo sit. Libero occaecati quam et perferendis eos totam dicta laborum. Et explicabo saepe aspernatur. Eum quibusdam facilis reiciendis dolores rerum. Repellendus vero et quod voluptas. Similique iure id est.",
                       "available": 0,
                       "price": 28.96,
                       "created_at": "2021-08-19T15:21:27.000000Z"
                   }
               ],
               "meta": {
                   "pagination": {
                       "total": 16,
                       "count": 10,
                       "per_page": 10,
                       "current_page": 1,
                       "total_pages": 2,
                       "links": {
                           "next": "https://laravel-dingo-api.test/api/products?page=2"
                       }
                   }
               }
          }
        headers: []
        description: '200, success'
    responseFields: []
  -
    httpMethods:
      - POST
    uri: api/products
    metadata:
      title: 'Crear producto'
      description: ''
      authenticated: true
      custom: []
    headers:
      Authorization: 'Bearer {YOUR_AUTH_KEY}'
      Content-Type: application/json
      Accept: application/json
    urlParameters: []
    queryParameters: []
    bodyParameters:
      name:
        name: name
        description: 'Nombre del producto'
        required: false
        example: magnam
        type: string
        custom: []
      description:
        name: description
        description: 'Descripción del producto'
        required: false
        example: veritatis
        type: string
        custom: []
      available:
        name: available
        description: '¿Está disponible el producto?'
        required: false
        example: true
        type: boolean
        custom: []
      price:
        name: price
        description: 'Precio del producto'
        required: false
        example: 2137.4
        type: number
        custom: []
    responses:
      -
        status: 200
        content: |-
          {
               "data": {
                   "id": 10,
                   "name": "producto actualizado",
                   "description": "Un nuevo producto en la tienda",
                   "available": 1,
                   "price": 34.99,
                   "created_at": "2021-08-19T15:21:27.000000Z"
               }
          }
        headers: []
        description: '200, success'
    responseFields: []
  -
    httpMethods:
      - GET
    uri: 'api/products/{id}'
    metadata:
      title: 'Obtener producto por ID'
      description: ''
      authenticated: true
      custom: []
    headers:
      Authorization: 'Bearer {YOUR_AUTH_KEY}'
      Content-Type: application/json
      Accept: application/json
    urlParameters:
      id:
        name: id
        description: 'ID del producto'
        required: false
        example: 9
        type: integer
        custom: []
    queryParameters: []
    bodyParameters: []
    responses:
      -
        status: 200
        content: |-
          {
               "data": {
                   "id": 10,
                   "name": "Alice. 'Exactly so,'.",
                   "description": "Quam aut reiciendis omnis aut aliquid sequi. Omnis est voluptas laudantium culpa itaque. Assumenda dolorem officia eum. Facere quia nostrum enim vel fuga dolor quibusdam nisi. Ea voluptatem explicabo iste. Aut a veritatis aut voluptatem. Provident eveniet ex voluptate dolore sequi.",
                   "available": 0,
                   "price": 34.99,
                   "created_at": "2021-08-19T15:21:27.000000Z"
               }
          }
        headers: []
        description: '200, success'
    responseFields: []
  -
    httpMethods:
      - PUT
      - PATCH
    uri: 'api/products/{id}'
    metadata:
      title: 'Actualizar producto'
      description: ''
      authenticated: true
      custom: []
    headers:
      Authorization: 'Bearer {YOUR_AUTH_KEY}'
      Content-Type: application/json
      Accept: application/json
    urlParameters:
      id:
        name: id
        description: 'The ID of the product.'
        required: true
        example: 1
        type: integer
        custom: []
    queryParameters: []
    bodyParameters:
      name:
        name: name
        description: 'Nombre del producto'
        required: false
        example: nostrum
        type: string
        custom: []
      description:
        name: description
        description: 'Descripción del producto'
        required: false
        example: omnis
        type: string
        custom: []
      available:
        name: available
        description: '¿Está disponible el producto?'
        required: false
        example: true
        type: boolean
        custom: []
      price:
        name: price
        description: 'Precio del producto'
        required: false
        example: 3.4
        type: number
        custom: []
    responses: []
    responseFields: []
  -
    httpMethods:
      - DELETE
    uri: 'api/products/{id}'
    metadata:
      title: 'Eliminar producto por ID'
      description: ''
      authenticated: true
      custom: []
    headers:
      Authorization: 'Bearer {YOUR_AUTH_KEY}'
      Content-Type: application/json
      Accept: application/json
    urlParameters:
      id:
        name: id
        description: 'The ID of the product.'
        required: true
        example: 1
        type: integer
        custom: []
    queryParameters: []
    bodyParameters: []
    responses:
      -
        status: 204
        content: ''
        headers: []
        description: '204, success'
    responseFields: []
